<?xml version="1.0" encoding="UTF-8"?>
<svg width="164px" height="162px" viewBox="0 0 164 162" version="1.1" xmlns="http://www.w3.org/2000/svg" xmlns:xlink="http://www.w3.org/1999/xlink">
    <!-- Generator: Sketch 57.1 (83088) - https://sketch.com -->
    <title>background-30-pourcents</title>
    <desc>Created with Sketch.</desc>
    <g id="Page-1" stroke="none" stroke-width="1" fill="none" fill-rule="evenodd">
        <g id="background-30-pourcents" transform="translate(-1.000000, -1.000000)">
            <circle id="Oval" fill="#FFFFFF" cx="82.682" cy="83.091" r="70.25"></circle>
            <path d="M88.767,159.183 C57.9586154,159.183 30.1835978,140.625193 18.3934591,112.162073 C6.60332051,83.6989527 13.1199411,50.9362836 34.9046158,29.1513229 C56.6892905,7.36636223 89.451874,0.8493115 117.915149,12.6390765 C146.378423,24.4288414 164.937,52.2036153 164.937,83.012 C164.889607,125.060045 130.815044,159.135055 88.767,159.183 L88.767,159.183 Z M88.767,9.225 C48.0155652,9.225 14.98,42.2605652 14.98,83.012 C14.98,123.763435 48.0155652,156.799 88.767,156.799 C129.518435,156.799 162.554,123.763435 162.554,83.012 C162.507709,42.279755 129.499245,9.27129107 88.767,9.225 Z" id="Shape" fill="#D3171A" fill-rule="nonzero"></path>
            <path d="M77.17,162.382 C35.1019183,162.382 0.999,128.279082 0.999,86.211 C0.999,44.1429183 35.1019183,10.04 77.17,10.04 C119.238082,10.04 153.341,44.1429183 153.341,86.211 C153.293606,128.259435 119.218435,162.334606 77.17,162.382 Z M77.17,12.424 C36.4186953,12.424 3.384,45.460362 3.384,86.2116667 C3.384,126.962971 36.4200287,159.998 77.1713333,159.998 C117.922638,159.998 150.958,126.962305 150.958,86.211 C150.911708,45.4783651 117.902636,12.4697401 77.17,12.424 Z" id="Shape" fill="#D3171A" fill-rule="nonzero"></path>
            <path d="M83.856,153.341 C41.7879183,153.341 7.685,119.238082 7.685,77.17 C7.685,35.1019183 41.7879183,0.999 83.856,0.999 C125.924082,0.999 160.027,35.1019183 160.027,77.17 C159.979606,119.218435 125.904435,153.293606 83.856,153.341 L83.856,153.341 Z M83.856,3.383 C43.1046953,3.383 10.07,36.419362 10.07,77.1706667 C10.07,117.921971 43.1060287,150.957 83.8573333,150.957 C124.608638,150.957 157.644,117.921305 157.644,77.17 C157.597708,36.4373651 124.588636,3.42874011 83.856,3.383 Z" id="Shape" fill="#D3171A" fill-rule="nonzero"></path>
        </g>
    </g>
</svg>